Building DAG of jobs...
Using shell: /bin/bash
Provided cores: 1
Rules claiming more threads will be scaled down.
Job counts:
	count	jobs
	1	all
	1	bcftools_call
	3	bwa_map
	1	report
	3	samtools_index
	3	samtools_sort
	12

[Sun Apr 14 15:01:45 2019]
Job 11: executing bwa mem on the following /commons/Themas/Thema11/Dataprocessing/data/genome.fa /commons/Themas/Thema11/Dataprocessing/data/samples/B.fastq to generate the following mapped_reads/B.bam

[Sun Apr 14 15:01:46 2019]
Finished job 11.
1 of 12 steps (8%) done

[Sun Apr 14 15:01:46 2019]
Job 9: executing bwa mem on the following /commons/Themas/Thema11/Dataprocessing/data/genome.fa /commons/Themas/Thema11/Dataprocessing/data/samples/C.fastq to generate the following mapped_reads/C.bam

[Sun Apr 14 15:01:47 2019]
Finished job 9.
2 of 12 steps (17%) done

[Sun Apr 14 15:01:47 2019]
Job 10: executing bwa mem on the following /commons/Themas/Thema11/Dataprocessing/data/genome.fa /commons/Themas/Thema11/Dataprocessing/data/samples/A.fastq to generate the following mapped_reads/A.bam

[Sun Apr 14 15:01:48 2019]
Finished job 10.
3 of 12 steps (25%) done

[Sun Apr 14 15:01:48 2019]
Job 6: sort on the following mapped_reads/B.bam to generate the following sorted_reads/B.bam

[Sun Apr 14 15:01:48 2019]
Finished job 6.
4 of 12 steps (33%) done

[Sun Apr 14 15:01:48 2019]
Job 4: sort on the following mapped_reads/C.bam to generate the following sorted_reads/C.bam

[Sun Apr 14 15:01:49 2019]
Finished job 4.
5 of 12 steps (42%) done

[Sun Apr 14 15:01:49 2019]
Job 5: sort on the following mapped_reads/A.bam to generate the following sorted_reads/A.bam

[Sun Apr 14 15:01:49 2019]
Finished job 5.
6 of 12 steps (50%) done

[Sun Apr 14 15:01:49 2019]
Job 3: index on the following sorted_reads/C.bam to generate the following sorted_reads/C.bam.bai

[Sun Apr 14 15:01:49 2019]
Finished job 3.
7 of 12 steps (58%) done

[Sun Apr 14 15:01:49 2019]
Job 8: index on the following sorted_reads/B.bam to generate the following sorted_reads/B.bam.bai

[Sun Apr 14 15:01:49 2019]
Finished job 8.
8 of 12 steps (67%) done

[Sun Apr 14 15:01:49 2019]
Job 7: index on the following sorted_reads/A.bam to generate the following sorted_reads/A.bam.bai

[Sun Apr 14 15:01:50 2019]
Finished job 7.
9 of 12 steps (75%) done

[Sun Apr 14 15:01:50 2019]
Job 2: look for variants on the following data/genome.fa sorted_reads/A.bam sorted_reads/B.bam sorted_reads/C.bam sorted_reads/A.bam.bai sorted_reads/B.bam.bai sorted_reads/C.bam.bai to generate the following calls/all.vcf

[Sun Apr 14 15:01:51 2019]
Finished job 2.
10 of 12 steps (83%) done

[Sun Apr 14 15:01:51 2019]
Job 1: create a report on the following calls/all.vcf to generate the following out.html

[Sun Apr 14 15:01:52 2019]
Finished job 1.
11 of 12 steps (92%) done

[Sun Apr 14 15:01:52 2019]
localrule all:
    input: out.html
    jobid: 0

[Sun Apr 14 15:01:52 2019]
Finished job 0.
12 of 12 steps (100%) done
Complete log: /homes/mazandberg/bitbucket/dataprocessing/casus1_dataproccesing/.snakemake/log/2019-04-14T150144.945860.snakemake.log
