Building DAG of jobs...
Using shell: /usr/bin/bash
Provided cores: 1
Rules claiming more threads will be scaled down.
Job counts:
	count	jobs
	1	all
	1	bcftools_call
	16	bwa_map
	1	report
	16	samtools_index
	16	samtools_sort
	51

[Fri Apr  5 13:48:24 2019]
Job 37: executing bwa mem on the following /homes/mazandberg/bitbucket/dataprocessing/casus1_dataproccesing/data/genome.fa /data/storage/dataprocessing/rnaseq_data/Dutch_Microglia/S12048_ATCACG_L007_R2.fastq to generate the following mapped_reads/S12048_ATCACG_L007_R2.fastq.bam

Terminating processes on user request, this might take some time.
[Fri Apr  5 13:49:16 2019]
Error in rule bwa_map:
    jobid: 37
    output: mapped_reads/S12048_ATCACG_L007_R2.fastq.bam

RuleException:
CalledProcessError in line 42 of /homes/mazandberg/bitbucket/dataprocessing/casus1_dataproccesing/Snakefile:
Command ' set -euo pipefail;  bwa mem -t 1 /homes/mazandberg/bitbucket/dataprocessing/casus1_dataproccesing/data/genome.fa /data/storage/dataprocessing/rnaseq_data/Dutch_Microglia/S12048_ATCACG_L007_R2.fastq | samtools view -Sb - > mapped_reads/S12048_ATCACG_L007_R2.fastq.bam ' returned non-zero exit status -2
  File "/homes/mazandberg/bitbucket/dataprocessing/casus1_dataproccesing/Snakefile", line 42, in __rule_bwa_map
  File "/usr/lib/python3.5/concurrent/futures/thread.py", line 55, in run
Removing output files of failed job bwa_map since they might be corrupted:
mapped_reads/S12048_ATCACG_L007_R2.fastq.bam
Complete log: /homes/mazandberg/bitbucket/dataprocessing/casus1_dataproccesing/.snakemake/log/2019-04-05T134824.036768.snakemake.log
